module computerclub

go 1.21.7

require (
	github.com/stretchr/testify v1.9.0
	gitlab.com/slon/shad-go v0.0.0-20231003165454-50b27acb6315
)

require (
	github.com/davecgh/go-spew v1.1.1 // indirect
	github.com/kr/pretty v0.3.1 // indirect
	github.com/pmezard/go-difflib v1.0.0 // indirect
	gopkg.in/yaml.v3 v3.0.1 // indirect
)
